Processador/teste.vcd
$date
  Wed Mar 19 23:12:50 2025
$end
$version
  GHDL v0
$end
$timescale
  1 fs
$end
$scope module standard $end
$upscope $end
$scope module std_logic_1164 $end
$upscope $end
$scope module numeric_std $end
$upscope $end
$scope module tb_ram $end
$var reg 1 ! clock $end
$var reg 1 " enablewrite $end
$var reg 1 # enableread $end
$var reg 8 $ addressin[7:0] $end
$var reg 8 % datain[7:0] $end
$var reg 8 & dataout[7:0] $end
$scope module dut $end
$var reg 1 ' clock $end
$var reg 1 ( enablewrite $end
$var reg 1 ) enableread $end
$var reg 8 * addressin[7:0] $end
$var reg 8 + datain[7:0] $end
$var reg 8 , dataout[7:0] $end
$comment data is not handled $end
$var integer 32 - address $end
$upscope $end
$upscope $end
$enddefinitions $end
#0
0!
1"
0#
b00000000 $
b00000000 %
bUUUUUUUU &
0'
1(
0)
b00000000 *
b00000000 +
bUUUUUUUU ,
b0 -
#5000000
1!
bZZZZZZZZ &
1'
bZZZZZZZZ ,
#10000000
0!
0"
1#
0'
0(
1)
#15000000
1!
b00000000 &
1'
b00000000 ,
#20000000
0!
0#
0'
0)
#25000000
1!
bZZZZZZZZ &
1'
bZZZZZZZZ ,
#30000000
0!
1"
b00000001 $
b00000001 %
0'
1(
b00000001 *
b00000001 +
b1 -
#35000000
1!
1'
#40000000
0!
0"
1#
0'
0(
1)
#45000000
1!
b00000001 &
1'
b00000001 ,
#50000000
0!
0#
0'
0)
#55000000
1!
bZZZZZZZZ &
1'
bZZZZZZZZ ,
#60000000
0!
1"
b00000010 $
b00000010 %
0'
1(
b00000010 *
b00000010 +
b10 -
#65000000
1!
1'
#70000000
0!
0"
1#
0'
0(
1)
#75000000
1!
b00000010 &
1'
b00000010 ,
#80000000
0!
0#
0'
0)
#85000000
1!
bZZZZZZZZ &
1'
bZZZZZZZZ ,
#90000000
0!
1"
b00000011 $
b00000011 %
0'
1(
b00000011 *
b00000011 +
b11 -
#95000000
1!
1'
#100000000
0!
0"
1#
0'
0(
1)
#105000000
1!
b00000011 &
1'
b00000011 ,
#110000000
0!
0#
0'
0)
#115000000
1!
bZZZZZZZZ &
1'
bZZZZZZZZ ,
#120000000
0!
1"
b00000100 $
b00000100 %
0'
1(
b00000100 *
b00000100 +
b100 -
#125000000
1!
1'
#130000000
0!
0"
1#
0'
0(
1)
#135000000
1!
b00000100 &
1'
b00000100 ,
#140000000
0!
0#
0'
0)
#145000000
1!
bZZZZZZZZ &
1'
bZZZZZZZZ ,
#150000000
0!
1"
b00000101 $
b00000101 %
0'
1(
b00000101 *
b00000101 +
b101 -
#155000000
1!
1'
#160000000
0!
0"
1#
0'
0(
1)
#165000000
1!
b00000101 &
1'
b00000101 ,
#170000000
0!
0#
0'
0)
#175000000
1!
bZZZZZZZZ &
1'
bZZZZZZZZ ,
#180000000
0!
1"
b00000110 $
b00000110 %
0'
1(
b00000110 *
b00000110 +
b110 -
#185000000
1!
1'
#190000000
0!
0"
1#
0'
0(
1)
#195000000
1!
b00000110 &
1'
b00000110 ,
#200000000
0!
0#
0'
0)
#205000000
1!
bZZZZZZZZ &
1'
bZZZZZZZZ ,
#210000000
0!
1"
b00000111 $
b00000111 %
0'
1(
b00000111 *
b00000111 +
b111 -
#215000000
1!
1'
#220000000
0!
0"
1#
0'
0(
1)
#225000000
1!
b00000111 &
1'
b00000111 ,
#230000000
0!
0#
0'
0)
#235000000
1!
bZZZZZZZZ &
1'
bZZZZZZZZ ,
#240000000
0!
1"
b00001000 $
b00001000 %
0'
1(
b00001000 *
b00001000 +
b1000 -
#245000000
1!
1'
#250000000
0!
0"
1#
0'
0(
1)
#255000000
1!
b00001000 &
1'
b00001000 ,
#260000000
0!
0#
0'
0)
#265000000
1!
bZZZZZZZZ &
1'
bZZZZZZZZ ,
#270000000
0!
1"
b00001001 $
b00001001 %
0'
1(
b00001001 *
b00001001 +
b1001 -
#275000000
1!
1'
#280000000
0!
0"
1#
0'
0(
1)
#285000000
1!
b00001001 &
1'
b00001001 ,
#290000000
0!
0#
0'
0)
#295000000
1!
bZZZZZZZZ &
1'
bZZZZZZZZ ,
#300000000
0!
1"
b00001010 $
b00001010 %
0'
1(
b00001010 *
b00001010 +
b1010 -
#305000000
1!
1'
#310000000
0!
0"
1#
0'
0(
1)
#315000000
1!
b00001010 &
1'
b00001010 ,
#320000000
0!
0#
0'
0)
#325000000
1!
bZZZZZZZZ &
1'
bZZZZZZZZ ,
#330000000
0!
1"
b00001011 $
b00001011 %
0'
1(
b00001011 *
b00001011 +
b1011 -
#335000000
1!
1'
#340000000
0!
0"
1#
0'
0(
1)
#345000000
1!
b00001011 &
1'
b00001011 ,
#350000000
0!
0#
0'
0)
#355000000
1!
bZZZZZZZZ &
1'
bZZZZZZZZ ,
#360000000
0!
1"
b00001100 $
b00001100 %
0'
1(
b00001100 *
b00001100 +
b1100 -
#365000000
1!
1'
#370000000
0!
0"
1#
0'
0(
1)
#375000000
1!
b00001100 &
1'
b00001100 ,
#380000000
0!
0#
0'
0)
#385000000
1!
bZZZZZZZZ &
1'
bZZZZZZZZ ,
#390000000
0!
1"
b00001101 $
b00001101 %
0'
1(
b00001101 *
b00001101 +
b1101 -
#395000000
1!
1'
#400000000
0!
0"
1#
0'
0(
1)
#405000000
1!
b00001101 &
1'
b00001101 ,
#410000000
0!
0#
0'
0)
#415000000
1!
bZZZZZZZZ &
1'
bZZZZZZZZ ,
#420000000
0!
1"
b00001110 $
b00001110 %
0'
1(
b00001110 *
b00001110 +
b1110 -
#425000000
1!
1'
#430000000
0!
0"
1#
0'
0(
1)
#435000000
1!
b00001110 &
1'
b00001110 ,
#440000000
0!
0#
0'
0)
#445000000
1!
bZZZZZZZZ &
1'
bZZZZZZZZ ,
#450000000
0!
1"
b00001111 $
b00001111 %
0'
1(
b00001111 *
b00001111 +
b1111 -
#455000000
1!
1'
#460000000
0!
0"
1#
0'
0(
1)
#465000000
1!
b00001111 &
1'
b00001111 ,
#470000000
0!
0#
0'
0)
#475000000
1!
bZZZZZZZZ &
1'
bZZZZZZZZ ,
#480000000
0!
1"
b00010000 $
b00010000 %
0'
1(
b00010000 *
b00010000 +
b10000 -
#485000000
1!
1'
#490000000
0!
0"
1#
0'
0(
1)
#495000000
1!
b00010000 &
1'
b00010000 ,
#500000000
0!
0#
0'
0)
#505000000
1!
bZZZZZZZZ &
1'
bZZZZZZZZ ,
#510000000
0!
1"
b00010001 $
b00010001 %
0'
1(
b00010001 *
b00010001 +
b10001 -
#515000000
1!
1'
#520000000
0!
0"
1#
0'
0(
1)
#525000000
1!
b00010001 &
1'
b00010001 ,
#530000000
0!
0#
0'
0)
#535000000
1!
bZZZZZZZZ &
1'
bZZZZZZZZ ,
#540000000
0!
1"
b00010010 $
b00010010 %
0'
1(
b00010010 *
b00010010 +
b10010 -
#545000000
1!
1'
#550000000
0!
0"
1#
0'
0(
1)
#555000000
1!
b00010010 &
1'
b00010010 ,
#560000000
0!
0#
0'
0)
#565000000
1!
bZZZZZZZZ &
1'
bZZZZZZZZ ,
#570000000
0!
1"
b00010011 $
b00010011 %
0'
1(
b00010011 *
b00010011 +
b10011 -
#575000000
1!
1'
#580000000
0!
0"
1#
0'
0(
1)
#585000000
1!
b00010011 &
1'
b00010011 ,
#590000000
0!
0#
0'
0)
#595000000
1!
bZZZZZZZZ &
1'
bZZZZZZZZ ,
#600000000
0!
1"
b00010100 $
b00010100 %
0'
1(
b00010100 *
b00010100 +
b10100 -
#605000000
1!
1'
#610000000
0!
0"
1#
0'
0(
1)
#615000000
1!
b00010100 &
1'
b00010100 ,
#620000000
0!
0#
0'
0)
#625000000
1!
bZZZZZZZZ &
1'
bZZZZZZZZ ,
#630000000
0!
1"
b00010101 $
b00010101 %
0'
1(
b00010101 *
b00010101 +
b10101 -
#635000000
1!
1'
#640000000
0!
0"
1#
0'
0(
1)
#645000000
1!
b00010101 &
1'
b00010101 ,
#650000000
0!
0#
0'
0)
#655000000
1!
bZZZZZZZZ &
1'
bZZZZZZZZ ,
#660000000
0!
1"
b00010110 $
b00010110 %
0'
1(
b00010110 *
b00010110 +
b10110 -
#665000000
1!
1'
#670000000
0!
0"
1#
0'
0(
1)
#675000000
1!
b00010110 &
1'
b00010110 ,
#680000000
0!
0#
0'
0)
#685000000
1!
bZZZZZZZZ &
1'
bZZZZZZZZ ,
#690000000
0!
1"
b00010111 $
b00010111 %
0'
1(
b00010111 *
b00010111 +
b10111 -
#695000000
1!
1'
#700000000
0!
0"
1#
0'
0(
1)
#705000000
1!
b00010111 &
1'
b00010111 ,
#710000000
0!
0#
0'
0)
#715000000
1!
bZZZZZZZZ &
1'
bZZZZZZZZ ,
#720000000
0!
1"
b00011000 $
b00011000 %
0'
1(
b00011000 *
b00011000 +
b11000 -
#725000000
1!
1'
#730000000
0!
0"
1#
0'
0(
1)
#735000000
1!
b00011000 &
1'
b00011000 ,
#740000000
0!
0#
0'
0)
#745000000
1!
bZZZZZZZZ &
1'
bZZZZZZZZ ,
#750000000
0!
1"
b00011001 $
b00011001 %
0'
1(
b00011001 *
b00011001 +
b11001 -
#755000000
1!
1'
#760000000
0!
0"
1#
0'
0(
1)
#765000000
1!
b00011001 &
1'
b00011001 ,
#770000000
0!
0#
0'
0)
#775000000
1!
bZZZZZZZZ &
1'
bZZZZZZZZ ,
#780000000
0!
1"
b00011010 $
b00011010 %
0'
1(
b00011010 *
b00011010 +
b11010 -
#785000000
1!
1'
#790000000
0!
0"
1#
0'
0(
1)
#795000000
1!
b00011010 &
1'
b00011010 ,
#800000000
0!
0#
0'
0)
#805000000
1!
bZZZZZZZZ &
1'
bZZZZZZZZ ,
#810000000
0!
1"
b00011011 $
b00011011 %
0'
1(
b00011011 *
b00011011 +
b11011 -
#815000000
1!
1'
#820000000
0!
0"
1#
0'
0(
1)
#825000000
1!
b00011011 &
1'
b00011011 ,
#830000000
0!
0#
0'
0)
#835000000
1!
bZZZZZZZZ &
1'
bZZZZZZZZ ,
#840000000
0!
1"
b00011100 $
b00011100 %
0'
1(
b00011100 *
b00011100 +
b11100 -
#845000000
1!
1'
#850000000
0!
0"
1#
0'
0(
1)
#855000000
1!
b00011100 &
1'
b00011100 ,
#860000000
0!
0#
0'
0)
#865000000
1!
bZZZZZZZZ &
1'
bZZZZZZZZ ,
#870000000
0!
1"
b00011101 $
b00011101 %
0'
1(
b00011101 *
b00011101 +
b11101 -
#875000000
1!
1'
#880000000
0!
0"
1#
0'
0(
1)
#885000000
1!
b00011101 &
1'
b00011101 ,
#890000000
0!
0#
0'
0)
#895000000
1!
bZZZZZZZZ &
1'
bZZZZZZZZ ,
#900000000
0!
1"
b00011110 $
b00011110 %
0'
1(
b00011110 *
b00011110 +
b11110 -
#905000000
1!
1'
#910000000
0!
0"
1#
0'
0(
1)
#915000000
1!
b00011110 &
1'
b00011110 ,
#920000000
0!
0#
0'
0)
#925000000
1!
bZZZZZZZZ &
1'
bZZZZZZZZ ,
#930000000
0!
1"
b00011111 $
b00011111 %
0'
1(
b00011111 *
b00011111 +
b11111 -
#935000000
1!
1'
#940000000
0!
0"
1#
0'
0(
1)
#945000000
1!
b00011111 &
1'
b00011111 ,
#950000000
0!
0#
0'
0)
#955000000
1!
bZZZZZZZZ &
1'
bZZZZZZZZ ,
#960000000
0!
1"
b00100000 $
b00100000 %
0'
1(
b00100000 *
b00100000 +
b100000 -
#965000000
1!
1'
#970000000
0!
0"
1#
0'
0(
1)
#975000000
1!
b00100000 &
1'
b00100000 ,
#980000000
0!
0#
0'
0)
#985000000
1!
bZZZZZZZZ &
1'
bZZZZZZZZ ,
#990000000
0!
1"
b00100001 $
b00100001 %
0'
1(
b00100001 *
b00100001 +
b100001 -
#995000000
1!
1'
#1000000000
0!
0"
1#
0'
0(
1)
#1005000000
1!
b00100001 &
1'
b00100001 ,
#1010000000
0!
0#
0'
0)
#1015000000
1!
bZZZZZZZZ &
1'
bZZZZZZZZ ,
#1020000000
0!
1"
b00100010 $
b00100010 %
0'
1(
b00100010 *
b00100010 +
b100010 -
#1025000000
1!
1'
#1030000000
0!
0"
1#
0'
0(
1)
#1035000000
1!
b00100010 &
1'
b00100010 ,
#1040000000
0!
0#
0'
0)
#1045000000
1!
bZZZZZZZZ &
1'
bZZZZZZZZ ,
#1050000000
0!
1"
b00100011 $
b00100011 %
0'
1(
b00100011 *
b00100011 +
b100011 -
#1055000000
1!
1'
#1060000000
0!
0"
1#
0'
0(
1)
#1065000000
1!
b00100011 &
1'
b00100011 ,
#1070000000
0!
0#
0'
0)
#1075000000
1!
bZZZZZZZZ &
1'
bZZZZZZZZ ,
#1080000000
0!
1"
b00100100 $
b00100100 %
0'
1(
b00100100 *
b00100100 +
b100100 -
#1085000000
1!
1'
#1090000000
0!
0"
1#
0'
0(
1)
#1095000000
1!
b00100100 &
1'
b00100100 ,
#1100000000
0!
0#
0'
0)
#1105000000
1!
bZZZZZZZZ &
1'
bZZZZZZZZ ,
#1110000000
0!
1"
b00100101 $
b00100101 %
0'
1(
b00100101 *
b00100101 +
b100101 -
#1115000000
1!
1'
#1120000000
0!
0"
1#
0'
0(
1)
#1125000000
1!
b00100101 &
1'
b00100101 ,
#1130000000
0!
0#
0'
0)
#1135000000
1!
bZZZZZZZZ &
1'
bZZZZZZZZ ,
#1140000000
0!
1"
b00100110 $
b00100110 %
0'
1(
b00100110 *
b00100110 +
b100110 -
#1145000000
1!
1'
#1150000000
0!
0"
1#
0'
0(
1)
#1155000000
1!
b00100110 &
1'
b00100110 ,
#1160000000
0!
0#
0'
0)
#1165000000
1!
bZZZZZZZZ &
1'
bZZZZZZZZ ,
#1170000000
0!
1"
b00100111 $
b00100111 %
0'
1(
b00100111 *
b00100111 +
b100111 -
#1175000000
1!
1'
#1180000000
0!
0"
1#
0'
0(
1)
#1185000000
1!
b00100111 &
1'
b00100111 ,
#1190000000
0!
0#
0'
0)
#1195000000
1!
bZZZZZZZZ &
1'
bZZZZZZZZ ,
#1200000000
0!
1"
b00101000 $
b00101000 %
0'
1(
b00101000 *
b00101000 +
b101000 -
#1205000000
1!
1'
#1210000000
0!
0"
1#
0'
0(
1)
#1215000000
1!
b00101000 &
1'
b00101000 ,
#1220000000
0!
0#
0'
0)
#1225000000
1!
bZZZZZZZZ &
1'
bZZZZZZZZ ,
#1230000000
0!
1"
b00101001 $
b00101001 %
0'
1(
b00101001 *
b00101001 +
b101001 -
#1235000000
1!
1'
#1240000000
0!
0"
1#
0'
0(
1)
#1245000000
1!
b00101001 &
1'
b00101001 ,
#1250000000
0!
0#
0'
0)
#1255000000
1!
bZZZZZZZZ &
1'
bZZZZZZZZ ,
#1260000000
0!
1"
b00101010 $
b00101010 %
0'
1(
b00101010 *
b00101010 +
b101010 -
#1265000000
1!
1'
#1270000000
0!
0"
1#
0'
0(
1)
#1275000000
1!
b00101010 &
1'
b00101010 ,
#1280000000
0!
0#
0'
0)
#1285000000
1!
bZZZZZZZZ &
1'
bZZZZZZZZ ,
#1290000000
0!
1"
b00101011 $
b00101011 %
0'
1(
b00101011 *
b00101011 +
b101011 -
#1295000000
1!
1'
#1300000000
0!
0"
1#
0'
0(
1)
#1305000000
1!
b00101011 &
1'
b00101011 ,
#1310000000
0!
0#
0'
0)
#1315000000
1!
bZZZZZZZZ &
1'
bZZZZZZZZ ,
#1320000000
0!
1"
b00101100 $
b00101100 %
0'
1(
b00101100 *
b00101100 +
b101100 -
#1325000000
1!
1'
#1330000000
0!
0"
1#
0'
0(
1)
#1335000000
1!
b00101100 &
1'
b00101100 ,
#1340000000
0!
0#
0'
0)
#1345000000
1!
bZZZZZZZZ &
1'
bZZZZZZZZ ,
#1350000000
0!
1"
b00101101 $
b00101101 %
0'
1(
b00101101 *
b00101101 +
b101101 -
#1355000000
1!
1'
#1360000000
0!
0"
1#
0'
0(
1)
#1365000000
1!
b00101101 &
1'
b00101101 ,
#1370000000
0!
0#
0'
0)
#1375000000
1!
bZZZZZZZZ &
1'
bZZZZZZZZ ,
#1380000000
0!
1"
b00101110 $
b00101110 %
0'
1(
b00101110 *
b00101110 +
b101110 -
#1385000000
1!
1'
#1390000000
0!
0"
1#
0'
0(
1)
#1395000000
1!
b00101110 &
1'
b00101110 ,
#1400000000
0!
0#
0'
0)
#1405000000
1!
bZZZZZZZZ &
1'
bZZZZZZZZ ,
#1410000000
0!
1"
b00101111 $
b00101111 %
0'
1(
b00101111 *
b00101111 +
b101111 -
#1415000000
1!
1'
#1420000000
0!
0"
1#
0'
0(
1)
#1425000000
1!
b00101111 &
1'
b00101111 ,
#1430000000
0!
0#
0'
0)
#1435000000
1!
bZZZZZZZZ &
1'
bZZZZZZZZ ,
#1440000000
0!
1"
b00110000 $
b00110000 %
0'
1(
b00110000 *
b00110000 +
b110000 -
#1445000000
1!
1'
#1450000000
0!
0"
1#
0'
0(
1)
#1455000000
1!
b00110000 &
1'
b00110000 ,
#1460000000
0!
0#
0'
0)
#1465000000
1!
bZZZZZZZZ &
1'
bZZZZZZZZ ,
#1470000000
0!
1"
b00110001 $
b00110001 %
0'
1(
b00110001 *
b00110001 +
b110001 -
#1475000000
1!
1'
#1480000000
0!
0"
1#
0'
0(
1)
#1485000000
1!
b00110001 &
1'
b00110001 ,
#1490000000
0!
0#
0'
0)
#1495000000
1!
bZZZZZZZZ &
1'
bZZZZZZZZ ,
#1500000000
0!
1"
b00110010 $
b00110010 %
0'
1(
b00110010 *
b00110010 +
b110010 -
#1505000000
1!
1'
#1510000000
0!
0"
1#
0'
0(
1)
#1515000000
1!
b00110010 &
1'
b00110010 ,
#1520000000
0!
0#
0'
0)
#1525000000
1!
bZZZZZZZZ &
1'
bZZZZZZZZ ,
#1530000000
0!
1"
b00110011 $
b00110011 %
0'
1(
b00110011 *
b00110011 +
b110011 -
#1535000000
1!
1'
#1540000000
0!
0"
1#
0'
0(
1)
#1545000000
1!
b00110011 &
1'
b00110011 ,
#1550000000
0!
0#
0'
0)
#1555000000
1!
bZZZZZZZZ &
1'
bZZZZZZZZ ,
#1560000000
0!
1"
b00110100 $
b00110100 %
0'
1(
b00110100 *
b00110100 +
b110100 -
#1565000000
1!
1'
#1570000000
0!
0"
1#
0'
0(
1)
#1575000000
1!
b00110100 &
1'
b00110100 ,
#1580000000
0!
0#
0'
0)
#1585000000
1!
bZZZZZZZZ &
1'
bZZZZZZZZ ,
#1590000000
0!
1"
b00110101 $
b00110101 %
0'
1(
b00110101 *
b00110101 +
b110101 -
#1595000000
1!
1'
#1600000000
0!
0"
1#
0'
0(
1)
#1605000000
1!
b00110101 &
1'
b00110101 ,
#1610000000
0!
0#
0'
0)
#1615000000
1!
bZZZZZZZZ &
1'
bZZZZZZZZ ,
#1620000000
0!
1"
b00110110 $
b00110110 %
0'
1(
b00110110 *
b00110110 +
b110110 -
#1625000000
1!
1'
#1630000000
0!
0"
1#
0'
0(
1)
#1635000000
1!
b00110110 &
1'
b00110110 ,
#1640000000
0!
0#
0'
0)
#1645000000
1!
bZZZZZZZZ &
1'
bZZZZZZZZ ,
#1650000000
0!
1"
b00110111 $
b00110111 %
0'
1(
b00110111 *
b00110111 +
b110111 -
#1655000000
1!
1'
#1660000000
0!
0"
1#
0'
0(
1)
#1665000000
1!
b00110111 &
1'
b00110111 ,
#1670000000
0!
0#
0'
0)
#1675000000
1!
bZZZZZZZZ &
1'
bZZZZZZZZ ,
#1680000000
0!
1"
b00111000 $
b00111000 %
0'
1(
b00111000 *
b00111000 +
b111000 -
#1685000000
1!
1'
#1690000000
0!
0"
1#
0'
0(
1)
#1695000000
1!
b00111000 &
1'
b00111000 ,
#1700000000
0!
0#
0'
0)
#1705000000
1!
bZZZZZZZZ &
1'
bZZZZZZZZ ,
#1710000000
0!
1"
b00111001 $
b00111001 %
0'
1(
b00111001 *
b00111001 +
b111001 -
#1715000000
1!
1'
#1720000000
0!
0"
1#
0'
0(
1)
#1725000000
1!
b00111001 &
1'
b00111001 ,
#1730000000
0!
0#
0'
0)
#1735000000
1!
bZZZZZZZZ &
1'
bZZZZZZZZ ,
#1740000000
0!
1"
b00111010 $
b00111010 %
0'
1(
b00111010 *
b00111010 +
b111010 -
#1745000000
1!
1'
#1750000000
0!
0"
1#
0'
0(
1)
#1755000000
1!
b00111010 &
1'
b00111010 ,
#1760000000
0!
0#
0'
0)
#1765000000
1!
bZZZZZZZZ &
1'
bZZZZZZZZ ,
#1770000000
0!
1"
b00111011 $
b00111011 %
0'
1(
b00111011 *
b00111011 +
b111011 -
#1775000000
1!
1'
#1780000000
0!
0"
1#
0'
0(
1)
#1785000000
1!
b00111011 &
1'
b00111011 ,
#1790000000
0!
0#
0'
0)
#1795000000
1!
bZZZZZZZZ &
1'
bZZZZZZZZ ,
#1800000000
0!
1"
b00111100 $
b00111100 %
0'
1(
b00111100 *
b00111100 +
b111100 -
#1805000000
1!
1'
#1810000000
0!
0"
1#
0'
0(
1)
#1815000000
1!
b00111100 &
1'
b00111100 ,
#1820000000
0!
0#
0'
0)
#1825000000
1!
bZZZZZZZZ &
1'
bZZZZZZZZ ,
#1830000000
0!
1"
b00111101 $
b00111101 %
0'
1(
b00111101 *
b00111101 +
b111101 -
#1835000000
1!
1'
#1840000000
0!
0"
1#
0'
0(
1)
#1845000000
1!
b00111101 &
1'
b00111101 ,
#1850000000
0!
0#
0'
0)
#1855000000
1!
bZZZZZZZZ &
1'
bZZZZZZZZ ,
#1860000000
0!
1"
b00111110 $
b00111110 %
0'
1(
b00111110 *
b00111110 +
b111110 -
#1865000000
1!
1'
#1870000000
0!
0"
1#
0'
0(
1)
#1875000000
1!
b00111110 &
1'
b00111110 ,
#1880000000
0!
0#
0'
0)
#1885000000
1!
bZZZZZZZZ &
1'
bZZZZZZZZ ,
#1890000000
0!
1"
b00111111 $
b00111111 %
0'
1(
b00111111 *
b00111111 +
b111111 -
#1895000000
1!
1'
#1900000000
0!
0"
1#
0'
0(
1)
#1905000000
1!
b00111111 &
1'
b00111111 ,
#1910000000
0!
0#
0'
0)
#1915000000
1!
bZZZZZZZZ &
1'
bZZZZZZZZ ,
#1920000000
0!
1"
b01000000 $
b01000000 %
0'
1(
b01000000 *
b01000000 +
b1000000 -
#1925000000
1!
1'
#1930000000
0!
0"
1#
0'
0(
1)
#1935000000
1!
b01000000 &
1'
b01000000 ,
#1940000000
0!
0#
0'
0)
#1945000000
1!
bZZZZZZZZ &
1'
bZZZZZZZZ ,
#1950000000
0!
1"
b01000001 $
b01000001 %
0'
1(
b01000001 *
b01000001 +
b1000001 -
#1955000000
1!
1'
#1960000000
0!
0"
1#
0'
0(
1)
#1965000000
1!
b01000001 &
1'
b01000001 ,
#1970000000
0!
0#
0'
0)
#1975000000
1!
bZZZZZZZZ &
1'
bZZZZZZZZ ,
#1980000000
0!
1"
b01000010 $
b01000010 %
0'
1(
b01000010 *
b01000010 +
b1000010 -
#1985000000
1!
1'
#1990000000
0!
0"
1#
0'
0(
1)
#1995000000
1!
b01000010 &
1'
b01000010 ,
#2000000000
0!
0#
0'
0)
#2005000000
1!
bZZZZZZZZ &
1'
bZZZZZZZZ ,
#2010000000
0!
1"
b01000011 $
b01000011 %
0'
1(
b01000011 *
b01000011 +
b1000011 -
#2015000000
1!
1'
#2020000000
0!
0"
1#
0'
0(
1)
#2025000000
1!
b01000011 &
1'
b01000011 ,
#2030000000
0!
0#
0'
0)
#2035000000
1!
bZZZZZZZZ &
1'
bZZZZZZZZ ,
#2040000000
0!
1"
b01000100 $
b01000100 %
0'
1(
b01000100 *
b01000100 +
b1000100 -
#2045000000
1!
1'
#2050000000
0!
0"
1#
0'
0(
1)
#2055000000
1!
b01000100 &
1'
b01000100 ,
#2060000000
0!
0#
0'
0)
#2065000000
1!
bZZZZZZZZ &
1'
bZZZZZZZZ ,
#2070000000
0!
1"
b01000101 $
b01000101 %
0'
1(
b01000101 *
b01000101 +
b1000101 -
#2075000000
1!
1'
#2080000000
0!
0"
1#
0'
0(
1)
#2085000000
1!
b01000101 &
1'
b01000101 ,
#2090000000
0!
0#
0'
0)
#2095000000
1!
bZZZZZZZZ &
1'
bZZZZZZZZ ,
#2100000000
0!
1"
b01000110 $
b01000110 %
0'
1(
b01000110 *
b01000110 +
b1000110 -
#2105000000
1!
1'
#2110000000
0!
0"
1#
0'
0(
1)
#2115000000
1!
b01000110 &
1'
b01000110 ,
#2120000000
0!
0#
0'
0)
#2125000000
1!
bZZZZZZZZ &
1'
bZZZZZZZZ ,
#2130000000
0!
1"
b01000111 $
b01000111 %
0'
1(
b01000111 *
b01000111 +
b1000111 -
#2135000000
1!
1'
#2140000000
0!
0"
1#
0'
0(
1)
#2145000000
1!
b01000111 &
1'
b01000111 ,
#2150000000
0!
0#
0'
0)
#2155000000
1!
bZZZZZZZZ &
1'
bZZZZZZZZ ,
#2160000000
0!
1"
b01001000 $
b01001000 %
0'
1(
b01001000 *
b01001000 +
b1001000 -
#2165000000
1!
1'
#2170000000
0!
0"
1#
0'
0(
1)
#2175000000
1!
b01001000 &
1'
b01001000 ,
#2180000000
0!
0#
0'
0)
#2185000000
1!
bZZZZZZZZ &
1'
bZZZZZZZZ ,
#2190000000
0!
1"
b01001001 $
b01001001 %
0'
1(
b01001001 *
b01001001 +
b1001001 -
#2195000000
1!
1'
#2200000000
0!
0"
1#
0'
0(
1)
#2205000000
1!
b01001001 &
1'
b01001001 ,
#2210000000
0!
0#
0'
0)
#2215000000
1!
bZZZZZZZZ &
1'
bZZZZZZZZ ,
#2220000000
0!
1"
b01001010 $
b01001010 %
0'
1(
b01001010 *
b01001010 +
b1001010 -
#2225000000
1!
1'
#2230000000
0!
0"
1#
0'
0(
1)
#2235000000
1!
b01001010 &
1'
b01001010 ,
#2240000000
0!
0#
0'
0)
#2245000000
1!
bZZZZZZZZ &
1'
bZZZZZZZZ ,
#2250000000
0!
1"
b01001011 $
b01001011 %
0'
1(
b01001011 *
b01001011 +
b1001011 -
#2255000000
1!
1'
#2260000000
0!
0"
1#
0'
0(
1)
#2265000000
1!
b01001011 &
1'
b01001011 ,
#2270000000
0!
0#
0'
0)
#2275000000
1!
bZZZZZZZZ &
1'
bZZZZZZZZ ,
#2280000000
0!
1"
b01001100 $
b01001100 %
0'
1(
b01001100 *
b01001100 +
b1001100 -
#2285000000
1!
1'
#2290000000
0!
0"
1#
0'
0(
1)
#2295000000
1!
b01001100 &
1'
b01001100 ,
#2300000000
0!
0#
0'
0)
#2305000000
1!
bZZZZZZZZ &
1'
bZZZZZZZZ ,
#2310000000
0!
1"
b01001101 $
b01001101 %
0'
1(
b01001101 *
b01001101 +
b1001101 -
#2315000000
1!
1'
#2320000000
0!
0"
1#
0'
0(
1)
#2325000000
1!
b01001101 &
1'
b01001101 ,
#2330000000
0!
0#
0'
0)
#2335000000
1!
bZZZZZZZZ &
1'
bZZZZZZZZ ,
#2340000000
0!
1"
b01001110 $
b01001110 %
0'
1(
b01001110 *
b01001110 +
b1001110 -
#2345000000
1!
1'
#2350000000
0!
0"
1#
0'
0(
1)
#2355000000
1!
b01001110 &
1'
b01001110 ,
#2360000000
0!
0#
0'
0)
#2365000000
1!
bZZZZZZZZ &
1'
bZZZZZZZZ ,
#2370000000
0!
1"
b01001111 $
b01001111 %
0'
1(
b01001111 *
b01001111 +
b1001111 -
#2375000000
1!
1'
#2380000000
0!
0"
1#
0'
0(
1)
#2385000000
1!
b01001111 &
1'
b01001111 ,
#2390000000
0!
0#
0'
0)
#2395000000
1!
bZZZZZZZZ &
1'
bZZZZZZZZ ,
#2400000000
0!
1"
b01010000 $
b01010000 %
0'
1(
b01010000 *
b01010000 +
b1010000 -
#2405000000
1!
1'
#2410000000
0!
0"
1#
0'
0(
1)
#2415000000
1!
b01010000 &
1'
b01010000 ,
#2420000000
0!
0#
0'
0)
#2425000000
1!
bZZZZZZZZ &
1'
bZZZZZZZZ ,
#2430000000
0!
1"
b01010001 $
b01010001 %
0'
1(
b01010001 *
b01010001 +
b1010001 -
#2435000000
1!
1'
#2440000000
0!
0"
1#
0'
0(
1)
#2445000000
1!
b01010001 &
1'
b01010001 ,
#2450000000
0!
0#
0'
0)
#2455000000
1!
bZZZZZZZZ &
1'
bZZZZZZZZ ,
#2460000000
0!
1"
b01010010 $
b01010010 %
0'
1(
b01010010 *
b01010010 +
b1010010 -
#2465000000
1!
1'
#2470000000
0!
0"
1#
0'
0(
1)
#2475000000
1!
b01010010 &
1'
b01010010 ,
#2480000000
0!
0#
0'
0)
#2485000000
1!
bZZZZZZZZ &
1'
bZZZZZZZZ ,
#2490000000
0!
1"
b01010011 $
b01010011 %
0'
1(
b01010011 *
b01010011 +
b1010011 -
#2495000000
1!
1'
#2500000000
0!
0"
1#
0'
0(
1)
#2505000000
1!
b01010011 &
1'
b01010011 ,
#2510000000
0!
0#
0'
0)
#2515000000
1!
bZZZZZZZZ &
1'
bZZZZZZZZ ,
#2520000000
0!
1"
b01010100 $
b01010100 %
0'
1(
b01010100 *
b01010100 +
b1010100 -
#2525000000
1!
1'
#2530000000
0!
0"
1#
0'
0(
1)
#2535000000
1!
b01010100 &
1'
b01010100 ,
#2540000000
0!
0#
0'
0)
#2545000000
1!
bZZZZZZZZ &
1'
bZZZZZZZZ ,
#2550000000
0!
1"
b01010101 $
b01010101 %
0'
1(
b01010101 *
b01010101 +
b1010101 -
#2555000000
1!
1'
#2560000000
0!
0"
1#
0'
0(
1)
#2565000000
1!
b01010101 &
1'
b01010101 ,
#2570000000
0!
0#
0'
0)
#2575000000
1!
bZZZZZZZZ &
1'
bZZZZZZZZ ,
#2580000000
0!
1"
b01010110 $
b01010110 %
0'
1(
b01010110 *
b01010110 +
b1010110 -
#2585000000
1!
1'
#2590000000
0!
0"
1#
0'
0(
1)
#2595000000
1!
b01010110 &
1'
b01010110 ,
